SDS Exploratory Project
…
books<- books%>%select(-book_fullurl, -author_page_url)
books<- books%>%unite(genre_1, genre_2, col = "genre")

mus1<-music%>%pivot_wider(names_from="genre", values_from = "genre")
mus1%>%pivot_longer(col = c("Hip-Hop/Rap":"Alternative/Indie"), names_to = "genre",  
                    values_to = "value")%>%na.omit()%>%select(-value)

## # A tibble: 100 x 17
##    id    name  artists danceability energy   key loudness  mode speechiness
##    <fct> <fct> <fct>          <dbl>  <dbl> <int>    <dbl> <int>       <dbl>
##  1 6DCZ God' Drake          0.754  0.449     7    -9.21     1      0.109 
##  2 3ee8 SAD!  XXXTEN        0.74   0.613     8    -4.88     1      0.145 
##  3 0e7i rock Post M        0.587  0.535     5    -6.09     0      0.0898
##  4 3swc Psyc Post M        0.739  0.559     8    -8.01     1      0.117 
##  5 2G7V In M Drake          0.835  0.626     1    -5.83     1      0.125 
##  6 7dt6 Bett Post M        0.68   0.563    10    -5.84     1      0.0454
##  7 58q2 I Li Cardi B        0.816  0.726     5    -4.00     0      0.129 
##  8 7ef4 One  Calvin        0.791  0.862     9    -3.24     0      0.11  
##  9 76cy IDGAF Dua Li        0.836  0.544     7    -5.98     1      0.0943
## 10 08bN FRIE Marshm        0.626  0.88      9    -2.38     0      0.0504
## #  with 90 more rows, and 8 more variables: acousticness <dbl>,
## #   instrumentalness <dbl>, liveness <dbl>, valence <dbl>, tempo <dbl>,
## #   duration_ms <int>, time_signature <int>, genre <chr>

#mus1 after na.omit becomes the same as music

b1<-books%>%pivot_wider(names_from = "genre", values_from = "genre")
b1%>%pivot_longer(col = c("Mystery_Historical":"Self Help_Religion",  
                          "Nonfiction_Inspirational", "Christian_Inspirational",  
                          "Christian_Spirituality"), names_to = "genre",  
                  values_to = "value")%>%select(-value)

## # A tibble: 27,263,181 x 17
##    author_average_ author_gender author_genres author_id author_name
##               <dbl> <fct>         <fct>             <int> <fct>      
##  1             4.01 female        historical-f     74489 "Victoria 
##  2             4.01 female        historical-f     74489 "Victoria 
##  3             4.01 female        historical-f     74489 "Victoria 
##  4             4.01 female        historical-f     74489 "Victoria 
##  5             4.01 female        historical-f     74489 "Victoria 
##  6             4.01 female        historical-f     74489 "Victoria 
##  7             4.01 female        historical-f     74489 "Victoria 
##  8             4.01 female        historical-f     74489 "Victoria 
##  9             4.01 female        historical-f     74489 "Victoria 
## 10             4.01 female        historical-f     74489 "Victoria 
## #  with 27,263,171 more rows, and 12 more variables:
## #   author_rating_count <int>, author_review_count <int>, birthplace <fct>,
## #   book_average_rating <dbl>, book_id <fct>, book_title <fct>,
## #   num_ratings <int>, num_reviews <int>, pages <fct>, publish_date <fct>,
## #   score <int>, genre <chr>
…
fullset%>%select(author_gender)%>%count(author_gender)%>%distinct%>%na.omit

## # A tibble: 2 x 2
##   author_gender     n
##   <fct>         <int>
## 1 female        10690
## 2 male          12201

fullset%>%group_by(genre)%>%summarize(n=n())%>%arrange(desc(n))

## # A tibble: 1,197 x 2
##    genre                        n
##    <chr>                    <int>
##  1 Fantasy_Young Adult       1164
##  2 Romance_Romance           1124
##  3 Historical_Fiction         680
##  4 Fantasy_Fantasy            678
##  5 Young Adult_Fantasy        639
##  6 Young Adult_Contemporary   482
##  7 Classics_Fiction           453
##  8 Romance_Contemporary       409
##  9 Fiction_Historical         399
## 10 Fantasy_Fiction            381
## #  with 1,187 more rows
…
fullset%>%select(pages, author_gender)%>%group_by(author_gender)%>%  
  summarize(mean(pages))%>%na.omit

## # A tibble: 2 x 2
##   author_gender `mean(pages)`
##   <fct>                 <dbl>
## 1 female                 363.
## 2 male                   374.

fullset%>%group_by(author_genres, author_name) %>%summarize(first=first(num_ratings))%>%  
  arrange(first)

## # A tibble: 12,157 x 3
## # Groups:   author_genres [1,804]
##    author_genres            author_name        first
##    <fct>                    <fct>              <int>
##  1 fiction,                 "V.W. Singer\n"        1
##  2 memoir,                  "Aysha Akhtar\n"       2
##  3 spirituality,            "Mimi Novic\n"         2
##  4 children-s,              "Richard Denney\n"     3
##  5 children-s,              "T.M. McLean\n"        3
##  6 fantasy,                 "S.D. Grimm\n"         3
##  7 fantasy,science-fiction, "C.D. John\n"          3
##  8 fiction,                 "Rick Copper\n"        3
##  9 romance,                 "Rachel  Harris\n"     4
## 10 young-adult,             "Nandini Bajpai\n"     4
## #  with 12,147 more rows
…
